1102158123903664128	Sun Mar 03 10:45:48 +0000 2019	ar	"تخيّل أن لوحةً ملوّنة تحكم 43 مليون مواطن منذ عام 2013 في أكبر بلد عربي (جغرافيا).. 
وبعد أقلّ من ثلث ساعة من الآن… https://t.co/I76It3cdrt"
1103486909949665280	Thu Mar 07 02:45:55 +0000 2019	en	🇩🇿 Algeria: it looks like indeed Algerian protests are snowballing. They're backed by different professional unions… https://t.co/A5T20FKnUR
1102828447557128192	Tue Mar 05 07:09:26 +0000 2019	ar	إذا كان المجلس الدستوري عاجزًا عن الفصل في صحّة الطعون الانتخابية وعن إقناع الناس بعدالة وإنصاف أحكامه بسبب القانون… https://t.co/yjPxS7Jsql
1103593685097345024	Thu Mar 07 09:50:12 +0000 2019	ar	"RT @elkhabarlive: #مباشر  10:37 المحامون يتخطون الحواجز الأمنية ويصلون إلى المجلس الدستوري.
&gt;&gt; https://t.co/TFYyLM5I7M
الصورة: مصطفى بسطامي…"
1103593372441292800	Thu Mar 07 09:48:58 +0000 2019	ar	"RT @elkhabarlive: #مباشر  10:37 المحامون يتخطون الحواجز الأمنية ويصلون إلى المجلس الدستوري.
&gt;&gt; https://t.co/TFYyLM5I7M
الصورة: مصطفى بسطامي…"
1103593359342481408	Thu Mar 07 09:48:55 +0000 2019	ar	"RT @Nina09306210: حالتي لما سمعت بوتفليقة ترشح 💔

#الجزائر
#المجلس_الدستوري https://t.co/RdlAG6QMWK"
1103593085399908352	Thu Mar 07 09:47:49 +0000 2019	ar	"RT @elkhabarlive: #مباشر  10:37 المحامون يتخطون الحواجز الأمنية ويصلون إلى المجلس الدستوري.
&gt;&gt; https://t.co/TFYyLM5I7M
الصورة: مصطفى بسطامي…"
1103592927585095681	Thu Mar 07 09:47:12 +0000 2019	ar	"RT @elkhabarlive: #مباشر  10:37 المحامون يتخطون الحواجز الأمنية ويصلون إلى المجلس الدستوري.
&gt;&gt; https://t.co/TFYyLM5I7M
الصورة: مصطفى بسطامي…"
1103592673716387841	Thu Mar 07 09:46:11 +0000 2019	ar	@Ratiba_dz16 كي تشوف كلاب الدولة مخرجين الشرطة للمحامين تفهم بلي مخرجينهم باه يوقفو الاحتجاجات ماشي باه يحمو الشعب… https://t.co/0ZAjeBZcHB
1103592619932831744	Thu Mar 07 09:45:59 +0000 2019	ar	مئات المحامين في مسيرة إلى المجلس الدستوري.. بسبب رفض المجلس إستلام بيانهم الذي تضمن عدة مطالب، منها تطبيق القانون… https://t.co/YDW44Sb3a2
1103592191769874433	Thu Mar 07 09:44:16 +0000 2019	ar	"RT @elkhabarlive: #مباشر  10:37 المحامون يتخطون الحواجز الأمنية ويصلون إلى المجلس الدستوري.
&gt;&gt; https://t.co/TFYyLM5I7M
الصورة: مصطفى بسطامي…"
1103592054142238720	Thu Mar 07 09:43:44 +0000 2019	ar	"RT @elkhabarlive: #مباشر  10:37 المحامون يتخطون الحواجز الأمنية ويصلون إلى المجلس الدستوري.
&gt;&gt; https://t.co/TFYyLM5I7M
الصورة: مصطفى بسطامي…"
1103591803972997120	Thu Mar 07 09:42:44 +0000 2019	ar	"#الجزائر 
⭕#بالصور … #المحامون في وقفة سلمية بالقرب من #المجلس_الدستوري 
https://t.co/QkQJNv8e1Q"
1103591680081608705	Thu Mar 07 09:42:14 +0000 2019	ar	"RT @elkhabarlive: #مباشر  10:37 المحامون يتخطون الحواجز الأمنية ويصلون إلى المجلس الدستوري.
&gt;&gt; https://t.co/TFYyLM5I7M
الصورة: مصطفى بسطامي…"
1103591521205604352	Thu Mar 07 09:41:37 +0000 2019	ar	"RT @elkhabarlive: #مباشر  10:37 المحامون يتخطون الحواجز الأمنية ويصلون إلى المجلس الدستوري.
&gt;&gt; https://t.co/TFYyLM5I7M
الصورة: مصطفى بسطامي…"
